username,password,rollno,first_name,last_name
aadhavanm,123456789@,150050103,AADHAVAN,NAMBHI M
aahwan,123456789@,150050071,KUDUMULA,AAHWAN REDDY
abhaysingh,123456789@,150050034,ABHAY,SINGH CHAUHAN
abhigoyal,123456789@,150050108,ABHINAV,GOYAL
abhikumar,123456789@,150050020,ABHISHEK,KUMAR
ajayyadav,123456789@,150050056,AJAY,YADAV
ajinkya,123456789@,150050005,MOHGAONKAR,AJINKYA MOHAN
akhilorsu,123456789@,150050095,ORSU,AKHIL
akshith,123456789@,150050074,DONTHULA,AKSHITH REDDY
amayjain,123456789@,150050048,AMAY,JAIN
anikets,123456789@,150100012,SHIRKE,ANIKET SANTOSH
anirudhk,123456789@,150050070,KONDAPALLY,ANIRUDH REDDY
anmol,123456789@,150010041,ANMOL,MISHRA
anschauhan,123456789@,150050107,ANSHUL,CHAUHAN
anshua,123456789@,150050077,ANSHU,AHIRWAR
anubhaw,123456789@,150050100,ANUBHAW,KUNTAL XESS
archit,123456789@,150070001,ARCHIT,GUPTA
arijitp,123456789@,150020094,ARIJIT,PRAMANIK
arshdeep,123456789@,150050106,ARSHDEEP,SINGH
arunavo,123456789@,150050062,ARUNAVO,KUMAR MONDAL
atrehan,123456789@,150050031,AKASH,TREHAN
ayushraj,123456789@,150050042,AYUSH,RAJ
bharatk,123456789@,150050001,BHARAT,KHANDELWAL
bhatore,123456789@,150050055,PIYUSH,BHATORE
bhavan,123456789@,150050091,TURAKA,BHAVAN
bhavya,123456789@,150050028,BHAVYA,CHOUDHARY
bhavyabahl,123456789@,150050110,BHAVYA,BAHL
bhramar,123456789@,150050013,BHRAMAR,CHOUDHARY
bittu,123456789@,150050096,BITTU,KUMAR
bvsnaidu,123456789@,150050089,BURE,VIDYA SAGAR NAIDU
chandan,123456789@,150070023,CHANDAN,SNEHAL KAILAS
charles,123456789@,150050054,CHARLES,RAJAN
chasmai,123456789@, 15d170013,CHASMAI,HUZEFA EBRAHIM
chitwan,123456789@,150050011,CHITWAN,SAHARIA
deepeshm,123456789@,150050041,DEEPESH,MEENA
deepiitb,123456789@,150050039,DEEPAK,MEENA
devansh,123456789@,150070004,SHAH,DEVANSH
dhruvumesh,123456789@,150050052,UMESH,KUMAR
divya,123456789@,150110086,DIVYA,RAGHUNATHAN
divyans,123456789@,150020086,DIVYANSH,DIVYANSH
divyansh,123456789@,150050029,DIVYANSH,PAREEK
fenilvanvi,123456789@,150050003,VANVI,FENIL BHARATKUMAR
guptakshat,123456789@,150050030,AKSHAT,GUPTA
hariprasad,123456789@,150050102,HARI,PRASAD V
harsha,123456789@,150050073,CHAVATAPALLI,R S HARSHA VARDHAN
harshb,123456789@,150050109,HARSH,BANSAL
harshdepal,123456789@,150050010,HARSH,DINESH KUMAR DEPAL
harshithg,123456789@,150050069,GOKA,HARSHITH
hemanthk,123456789@,150050083,HEMANTH,K
himanshu,123456789@,150050104,HIMANSHU,GUPTA
iankan,123456789@,150050064,ANKAN,SARDAR
jagrawal,123456789@,150050047,JANAK,AGRAWAL
jatinarora,123456789@,150050035,JATIN,ARORA
jeyasoorya,123456789@,150050101,JEYASOORYA,S
joshi,123456789@,150050094,KOSURU,JOSHI
kanak,123456789@,150050016,AGRAWAL,KANAK RAJESHKUMAR
kartiks,123456789@,150050025,KARTIK,SINGHAL
kmakwane,123456789@,150050050,KUNAL,MAKWANE
krati,123456789@,150050051,KRATI,TIWARI
kshitij,123456789@,150050032,KSHITIJ,JAIN
kshitijg,123456789@,150050033,KSHITIJ,GARG
kunal,123456789@,150050105,KUNAL,MITTAL
lakshman,123456789@,150050092,KALIDINDI,LAKSHMAN PRADEEP
lohithk,123456789@,150050088,BURRA,LOHITH KUMAR
madhav,123456789@,150110017,MADHAV,GOEL
manas,123456789@,150050057,MANAS,BHARGAVA
mkarthik,123456789@,150050019,KARTHIK,MAHESH
mohitpatil,123456789@,150050017,MOHIT,P PATIL
mounya,123456789@,150050090,MANGALAPALLY,MOUNYATHA
mtaraviya,123456789@,150050002,TARAVIYA,MEET DR DHIRENBHAI
nagendra,123456789@,150050067,KAMANA,NAGENDRA REDDY
neeraj,123456789@,150050022,NEERAJ,DHAKE
nihhaar,123456789@,150050086,ROUTHU,NIHHAAR CHANDRA
nilesh,123456789@,150050059,NILESH,GUPTA
pareek,123456789@,150050049,MUKESH,PAREEK
pooja,123456789@,150050043,PUJA,RANI
pramodj,123456789@,150070018,JOSHI,UDAYAN PRAMOD
pranay,123456789@,150050026,PRANAY,AGRAWAL
purav,123456789@,150050007,PURAV,GANDHI
rampratap,123456789@,150050093,KALIDINDI,RAM PRATAP
rathod,123456789@,150050079,RATHOD,DINESH
raunaque,123456789@,150050063,RAUNAQUE,PATRA
rishabhg,123456789@,150050012,RISHABH,GARG
rishshah,123456789@,150050006,RISHABH,SHAH
rkapoor,123456789@,150050037,RAJAT,KAPOOR
rkcdrhkr,123456789@,150050058,RAVINDRA,KUMAR
rmittal,123456789@,150050015,RISHANK,MITTAL
rohitrango,123456789@,150050061,ROHIT,KUMAR JENA
roshanl,123456789@,150050038,ROSHANLAL,MEENA
saiprakash,123456789@,150050075,P,S E SAI PRAKASH REDDY
saitejag,123456789@,150050072,GUTTA,SAITEJA
samarjeet,123456789@,150100017,SAMARJEET,SAHOO
sandeepm,123456789@,150050066,MOPARTHI,SAI SANDEEP
sandeepmsk,123456789@,150050082,MAJJI,SANDEEP KUMAR
satvat,123456789@,150050053,SATVAT,JAGWANI
shaan,123456789@,150050004,VAIDYA,SHAAN PRAGNESHKUMAR
shankar,123456789@,150050081,PALLE,NAVYA MANISHANKAR
shantanud,123456789@,150050045,SHANTANU,DUBEY
sharath,123456789@,150050087,DANDI,SAI SHARATH
sheshansh,123456789@,150050027,SHESHANSH,AGRAWAL
shraddheya,123456789@,150050018,SHRADDHEYA,SHENDRE
shriramsb,123456789@,150050099,SHRIRAM,S B
silupanda,123456789@,150050024,SILU,PANDA
snehab,123456789@,150050040,SNEHA,SUNIL BHAKARE
sourabh,123456789@,150050009,SINGH,SOURABH BHAGWAN
sreekar,123456789@,150050065,GARLAPATI,SREEKAR
srijit,123456789@,150070046,SRIJIT,DUTTA
swagatsy,123456789@,150050076,SWAGAT,SHANKAR YADAWAD
tanujkaza,123456789@,150050008,TANUJ,KAZA
tarun,123456789@,150050021,TARUN,OMPRAKASH VERMA
tejamadaka,123456789@,150050060,MADAKA,TEJA
trblessy,123456789@,150050097,TALARI,REBECCA BLESSY
uddeshya,123456789@, 15D110007,UDDESHYA,UDDESHYA
utkarshm,123456789@,150050036,UTKARSH,KUMAR MAHAWAR
utsavanand,123456789@,150050044,UTSAV,ANAND
vamsi,123456789@,150050068,BEDAPUDI,VAMSI
varshiths,123456789@,150050084,VARSHITH,SREERAMDASS
varunkumar,123456789@,150050085,NAGANDLA,VARUN KUMAR
vinayakk,123456789@,150050098,VINAYAK,K
vishaljk,123456789@,150050014,VISHAL,SINGH
vsbagdawat,123456789@,150050046,VISHWAJEET,SINGH BAGDAWAT
yashsriram,123456789@,150050080,PATKURI,YASHASVI SRI RAM
yashwagh,123456789@,150050023,WAGH,YASH GOVIND
